
Generated from xcircuit ps file.

:Closed loop with two parallel branches with serial components on the left.

:15,11,8,(3,1)
:1,7,1.25,8.5,1
1,4,1.25,3.25,1
6,7,7.25,7.25,1
6,4,7.25,4.25,1
6,0,-1,-1,1,11
10,10,9.25,9,0
10,1,9.25,2.5,0
14,5.5,12,4.5,1

:polyline _color_,11,1,14,1,14,4.5
polyline _color_,14,6.5,14,10,11,10
segment 9,1,1,1,_color_
segment 9,10,1,10,_color_
segment 6,1,6,3,_color_
segment 1,1,1,3,_color_
segment 6,8,6,10,_color_
segment 1,8,1,10,_color_

:6,10,6,1
