
Generated from xcircuit ps file.

:Basic transistor stage with lower-side output.

:11,12,8,
:1,6,0.25,7.5,0
4,8,2.5,9.5,1,-2,3
4,4,2.25,3,1,2,-3
7,9,7.25,10.5,1
7,6,7.25,7.5,1
7,3,7.25,2.25,1
7,0,-1,-1,1
10,6,9.25,7.5,0

:polyline _color_,7,4.5,8,4.5,8,6,9,6
segment 0,1,11,1,_color_
segment 0,11,11,11,_color_
segment 7,7,7,8,_color_
segment 7,4,7,5,_color_
segment 7,2,7,1,_color_
segment 2,6,6,6,_color_
segment 7,10,7,11,_color_

:7,11,7,1,7,4.5
