
Generated from xcircuit ps file.

:Two branches and one opening end on the right.

:13,11,5,
:1,5.5,1.5,4.5,1
4,10,3.25,9,0
7,5.5,7.5,4.5,1
7,0,-1,-1,1
10,10,9.25,9,0

:polyline _color_,1,6.5,1,10,3,10
polyline _color_,1,4.5,1,1,13,1
segment 5,10,9,10,_color_
segment 11,10,13,10,_color_
segment 7,10,7,6.5,_color_
segment 7,1,7,4.5,_color_

:7,10,7,1
