
Generated from xcircuit ps file.

:Closed loop with two parallel branches on the right.

:14,11,5,
:1,5.5,2.25,5.75,1
5,10,4.25,9,0
9,5.5,7.25,4.5,1
9,0,-1,-1,1
13,5.5,11.25,4.5,1

:polyline _color_,13,6.5,13,10,6,10
polyline _color_,1,4.5,1,1,13,1,13,4.5
polyline _color_,1,6.5,1,10,4,10
segment 9,1,9,4.5,_color_
segment 9,6.5,9,10,_color_

:9,1,9,10
