
Generated from xcircuit ps file.

:One-step division.

:6,11,7,
:0,10,0,9,0
0,1,0,2.5,0
3,8,3.25,9.5,1
3,4,3.25,3.25,1
3,0,-1,-1,1
6,6,4.75,5,0
6,1,4.75,2.5,0

:polyline _color_,1,10,3,10,3,9
polyline _color_,3,7,3,5,3,6,5,6
segment 5,1,1,1,_color_
segment 3,1,3,3,_color_

:3,1,3,6
