
Generated from xcircuit ps file.

:Two branches and one opening end on the left.

:13,11,9,
:0,10,0,9,0
0,1,0,2.5,0
3,10,2.25,9,0
3,1,2.25,2.5,0
6,5.5,3.75,4.5,1
6,0,-1,-1,1
9,10,8.25,9,0
9,1,8,2.5,0
12,5.5,9.75,4.5,1

:polyline _color_,12,6.5,12,10,10,10
polyline _color_,12,4.5,12,1,10,1
segment 8,10,4,10,_color_
segment 2,10,1,10,_color_
segment 8,1,4,1,_color_
segment 2,1,1,1,_color_
segment 6,10,6,6.5,_color_
segment 6,1,6,4.5,_color_

:6,10,6,1
