
Generated from xcircuit ps file.

:Three branches closed.

:14,11,6,
:1,5.5,1.25,4.5,1
4,10,3.25,9,0
7,5.5,7.25,4.5,1
7,0,-1,-1,1
10,10,9.25,9,0
13,5.5,10.75,4.5,1

:polyline _color_,1,6.5,1,10,3,10
polyline _color_,11,10,13,10,13,6.5
polyline _color_,1,4.5,1,1,13,1,13,4.5
segment 5,10,9,10,_color_
segment 7,10,7,6.5,_color_
segment 7,1,7,4.5,_color_

:7,10,7,1
