[
"",
"1d donnee",
"2d courbe",
"2d donnee",
"2d donnees tracee",
"addition",
"aire",
"algebre",
"algebre elementaire",
"algebre lineaire",
"analyse",
"angle",
"angle conversion",
"antiderivative",
"approximation fractionnelle",
"approximation par un nombre rationnel",
"approximation par une fraction",
"approximation rationnelle",
"argument",
"arithmetique",
"arithmetique modulaire",
"base conversion",
"base de nombre",
"binaire",
"carree",
"centre du cercle",
"cercle",
"cercle circonscrit",
"cercle inscrit",
"circonference",
"coefficients de correlation",
"combinatoire",
"complexe",
"compose",
"conversion d angle",
"conversion de base",
"convertir",
"convertir angle",
"convertir nombre",
"coordonnees polaires",
"correlation lineaire",
"cos",
"courbe",
"courbe 2d",
"courbe d espace",
"courbe d espace implicite",
"courbe d espace parametree",
"courbe de fonction",
"courbe explicite",
"courbe implicite",
"courbe parametree",
"courbe plane",
"courbe plane implicite",
"courbe plane parametree",
"courbe polaire",
"covariance",
"cubique",
"decimal",
"degre",
"denominateur",
"denominateur en commun",
"derivee",
"derivee de fonction implicite",
"derivee implicite",
"determinant",
"developper",
"deviation",
"diametre",
"differentiation",
"differentiation implicite",
"dispersion",
"diviseur en commun",
"division",
"donnee",
"donnee 1d",
"donnee 2d",
"donnee produit",
"donnee somme",
"donnees 2d tracee",
"donnees a poids",
"droite",
"droite avec 2 points",
"droite definie par 2 points",
"droite definie par une equation",
"droite passant par 2 points",
"droite sur 2 points",
"ecart type",
"ecart type a poids",
"ecart-type",
"entier",
"equation",
"equation de cercle",
"equation de droite",
"equation de droite par 2 points",
"equation implicite",
"equation lineaire",
"equation parametree",
"equation resoudre",
"espace",
"etendue",
"evaluation modulaire",
"evaluer",
"exp",
"expression",
"facteur en commun",
"factorielle",
"factorisation",
"factorisation d entier",
"factorisation de polynome",
"factorisation en nombre premier",
"factorisation en premier",
"factoriser",
"fonction",
"fonction composee",
"fonction gamma",
"fonction implicite",
"fourier",
"fourier transforme",
"fraction",
"function",
"gcd",
"geometrie",
"geometrie algebrique",
"geometrie analytique",
"geometrie elementaire",
"geometrie euclidienne",
"graphe",
"graphe de donnee",
"graphe de fonction",
"graphe de frequence",
"graphe de frequence avec poids",
"hauteur",
"hexadecimal",
"imaginaire",
"implicite",
"infinie",
"integral",
"integrale",
"integrale definie",
"integration",
"inverse de matrice",
"laplace",
"laplace transforme",
"lcm",
"limite",
"limite d une fonction",
"limite partielle",
"limite partielle d une fonction",
"liste de nombres premiers",
"ln",
"log",
"matrice",
"matrice inverse",
"matrice trace",
"mediane",
"mod",
"modulaire",
"module",
"moyenne",
"moyenne arithmetique",
"moyenne geometrique",
"moyenne harmonique",
"moyenne quadratique",
"multiplication",
"newton",
"nombre",
"nombre complexe",
"nombre conversion",
"nombre premier",
"nombre premier aleatoire",
"nombre premier liste",
"nombre rationnel",
"nombres reels",
"octal",
"parametree",
"partie imaginaire",
"partie reelle",
"pgcd",
"plus grand commun diviseur",
"plus petit commun multiple",
"poids ecart type",
"poids moyenne",
"poids produit",
"poids somme",
"poids tracee de frequence",
"polaire",
"polynome",
"polynome caracteristique",
"pourcent",
"pourcentage",
"ppcm",
"premier",
"primitive",
"produit",
"produit de donnee",
"quartique",
"quintique",
"racine",
"racine carree",
"racine complexe",
"racine cubique",
"racine d un nombre complexe",
"racine quartique",
"racine quintique",
"racines",
"racines carrees",
"racines carrees complexes",
"racines cubiques complexes",
"radian",
"rationnel",
"rayon",
"rayon du cercle",
"reel",
"reels",
"regression",
"regression lineaire",
"regression quadratique",
"remplacer",
"resoudre",
"resoudre equation",
"resoudre systeme",
"simplification numerique",
"simplifier",
"sin",
"solution",
"solution de systeme",
"solution de systeme lineaire",
"solution lineaire",
"solution numerique",
"somme",
"somme de donnee",
"sommet",
"soustraction",
"statistique",
"statistiques",
"substituer",
"surface",
"surface d espace",
"surface implicite",
"surface parametree",
"systeme de nombre",
"systeme polaire",
"systeme solution",
"trace",
"trace de droite",
"trace de matrice",
"tracee",
"tracee de donnee",
"tracee de donnee 2d",
"tracee de fonction",
"tracee de frequence",
"tracee de frequence avec poids",
"tracer courbe implicite",
"tracer courbe parametree",
"tracer courbe polaire",
"tracer equation lineaire",
"tracer une fonction",
"transforme",
"transforme de fourier",
"transforme de fourier inverse",
"transforme de laplace",
"transforme de laplace inverse",
"transforme inverse de fourier",
"transforme inverse de laplace",
"transformee de laplace",
"triangle",
"variable",
"variance"
]